[
    {
        "name": "id",
        "dbType": "increments",
        "htmlType": "",
        "validations": "",
        "searchable": false,
        "fillable": false,
        "primary": true,
        "inForm": false,
        "inIndex": false
    },
    {
        "name": "name",
        "dbType": "string",
        "htmlType": "text"
    },
    {
        "name": "phone",
        "dbType": "string:nullable",
        "htmlType": "text"
    },
    {
        "name": "respondent_type",
        "dbType": "string",
        "htmlType": "select,s"
    },
    {
        "name": "traveling_budget",
        "dbType": "biginteger:nullable",
        "htmlType": "select,s"
    },
    {
        "name": "start_date",
        "dbType": "date:nullable",
        "htmlType": "date"
    },
    {
        "name": "end_date",
        "dbType": "date:nullable",
        "htmlType": "date"
    },
    {
        "name": "created_at",
        "dbType": "timestamp",
        "htmlType": "",
        "validations": "",
        "searchable": false,
        "fillable": false,
        "primary": false,
        "inForm": false,
        "inIndex": false
    },
    {
        "name": "updated_at",
        "dbType": "timestamp",
        "htmlType": "",
        "validations": "",
        "searchable": false,
        "fillable": false,
        "primary": false,
        "inForm": false,
        "inIndex": false
    }
]
